Assignment 2 (compilation results)

Student: 004059181 ------- Compilation Successful -------
Student: 004748090 XXXXXXX Compilation Failed XXXXXXXXXXX
Student: 004783644 ------- Compilation Successful -------
Student: 004808852 ------- Compilation Successful -------
Student: 005002697 ------- Compilation Successful -------
Student: 005200862 ------- Compilation Successful -------
Student: 005295520 ------- Compilation Successful -------
Student: 005341447 ------- Compilation Successful -------
Student: 005367135 ------- Compilation Successful -------
Student: 005376253 ------- Compilation Successful -------
Student: 105161252 ------- Compilation Successful -------
Student: 105171246 ------- Compilation Successful -------
Student: 105304053 ------- Compilation Successful -------
Student: 105347830 ------- Compilation Successful -------
Student: 204754198 ------- Compilation Successful -------
Student: 204930291 ------- Compilation Successful -------
Student: 204932558 ------- Compilation Successful -------
Student: 205001003 ------- Compilation Successful -------
Student: 205006736 ------- Compilation Successful -------
Student: 205140344 ------- Compilation Successful -------
Student: 205190013 ------- Compilation Successful -------
Student: 205292083 ------- Compilation Successful -------
Student: 205367969 ------- Compilation Successful -------
Student: 304837966 ------- Compilation Successful -------
Student: 304933246 ------- Compilation Successful -------
Student: 305383011 ------- Compilation Successful -------
Student: 305387740 ------- Compilation Successful -------
Student: 305389758 ------- Compilation Successful -------
Student: 305463499 ------- Compilation Successful -------
Student: 404994258 ------- Compilation Successful -------
Student: 405328566 ------- Compilation Successful -------
Student: 405378472 ------- Compilation Successful -------
Student: 504813021 XXXXXXX Compilation Failed XXXXXXXXXXX
Student: 505095024 ------- Compilation Successful -------
Student: 505104820 ------- Compilation Successful -------
Student: 505127478 ------- Compilation Successful -------
Student: 505299790 ------- Compilation Successful -------
Student: 505309044 ------- Compilation Successful -------
Student: 505322050 ------- Compilation Successful -------
Student: 505400774 ------- Compilation Successful -------
Student: 604921143 ------- Compilation Successful -------
Student: 604986219 ------- Compilation Successful -------
Student: 605082361 ------- Compilation Successful -------
Student: 605166030 ------- Compilation Successful -------
Student: 605358576 ------- Compilation Successful -------
Student: 605403220 ------- Compilation Successful -------
Student: 605418783 ------- Compilation Successful -------
Student: 705104796 ------- Compilation Successful -------
Student: 705203701 ------- Compilation Successful -------
Student: 705313865 XXXXXXX Compilation Failed XXXXXXXXXXX
Student: 705348006 ------- Compilation Successful -------
Student: 705368056 ------- Compilation Successful -------
Student: 705369433 ------- Compilation Successful -------
Student: 705413148 ------- Compilation Successful -------
Student: 804390713 ------- Compilation Successful -------
Student: 804911379 ------- Compilation Successful -------
Student: 804963924 ------- Compilation Successful -------
Student: 805114163 ------- Compilation Successful -------
Student: 805143844 XXXXXXX Compilation Failed XXXXXXXXXXX
Student: 805162936 ------- Compilation Successful -------
Student: 805170998 ------- Compilation Successful -------
Student: 805291108 ------- Compilation Successful -------
Student: 805356977 ------- Compilation Successful -------
Student: 805360696 ------- Compilation Successful -------
Student: 805412105 ------- Compilation Successful -------
Student: 904771463 ------- Compilation Successful -------
Student: 904980560 ------- Compilation Successful -------
Student: 905095277 ------- Compilation Successful -------
Student: 905149218 ------- Compilation Successful -------
Student: 905166217 ------- Compilation Successful -------
